{
	"info": {
		"_postman_id": "06222957-08b1-4d5c-a211-d3161be2adb7",
		"name": "coursebooking",
		"schema": "https://schema.getpostman.com/json/collection/v2.1.0/collection.json"
	},
	"item": [
		{
			"name": "get all courses",
			"request": {
				"method": "GET",
				"header": [],
				"url": {
					"raw": "{{server}}api/courses/",
					"host": [
						"{{server}}api"
					],
					"path": [
						"courses",
						""
					]
				}
			},
			"response": []
		},
		{
			"name": "get course by id",
			"request": {
				"method": "GET",
				"header": [],
				"url": {
					"raw": "{{server}}api/courses/601cb6f7cc3fb74894c872f0",
					"host": [
						"{{server}}api"
					],
					"path": [
						"courses",
						"601cb6f7cc3fb74894c872f0"
					]
				}
			},
			"response": []
		},
		{
			"name": "add course",
			"request": {
				"method": "POST",
				"header": [],
				"body": {
					"mode": "raw",
					"raw": "{\r\n    \"name\" : \"Y-sports\",\r\n    \"price\": 39, \r\n    \"description\" : \"be a master of WhyGaming skills\"\r\n}",
					"options": {
						"raw": {
							"language": "json"
						}
					}
				},
				"url": {
					"raw": "{{server}}api/courses",
					"host": [
						"{{server}}api"
					],
					"path": [
						"courses"
					]
				}
			},
			"response": []
		},
		{
			"name": "update course",
			"request": {
				"method": "PUT",
				"header": [],
				"body": {
					"mode": "raw",
					"raw": "{\r\n    \"id\" : \"601cb6f7cc3fb74894c872f0\",\r\n    \"name\": \"kainan na\",\r\n    \"description\" : \"G na g sa sports\",\r\n    \"price\" : 20\r\n}",
					"options": {
						"raw": {
							"language": "json"
						}
					}
				},
				"url": {
					"raw": "{{server}}api/courses/",
					"host": [
						"{{server}}api"
					],
					"path": [
						"courses",
						""
					]
				}
			},
			"response": []
		},
		{
			"name": "delete course",
			"request": {
				"method": "DELETE",
				"header": [],
				"url": {
					"raw": "{{server}}api/courses/601cbb7b2ea6fc4a2826f433",
					"host": [
						"{{server}}api"
					],
					"path": [
						"courses",
						"601cbb7b2ea6fc4a2826f433"
					]
				}
			},
			"response": []
		}
	]
}